<svg width="100%" viewBox="-180 -220 360 340"
    aria-labelledby="venn-sustainable-title venn-sustainable-desc" role="img">
    <title id="venn-sustainable-title">Un diagramme de Venn représentant l'intersection des trois piliers</title>
    <desc id="venn-sustainable-title">Société et environnement intersectent en "vivable" ; environnement et économie intersectent en "viable" ; société et économie intersectent en "équitable" ; l'intersection des trois est "durable".</desc>
    <g class="focus" text-anchor="end">
        <circle class="fill fill-1" fill-opacity="0.7" r="115" cx="-60" cy="-100" />
        <text class="over-fill" font-weight="600" x="-60" y="-120">Planète</text>
        <text class="over-fill" font-size="0.5em" x="-60" y="-110">(environnement)</em>
    </g>
    <g class="focus" text-anchor="start">
        <circle class="fill fill-4" fill-opacity="0.7" r="115" cx="60" cy="-100" />
        <text class="over-fill" font-weight="600" x="60" y="-120">Personnes</text>
        <text class="over-fill" font-size="0.5em" x="60" y="-110">(société)</text>
    </g>
    <g class="focus" text-anchor="middle">
        <circle class="fill fill-2" fill-opacity="0.7" r="115" />
        <text class="over-fill" font-weight="600" y="35">Prospérité</text>
        <text class="over-fill" font-size="0.5em" y="45">(économie)</text>
    </g>
    <g class="over-fill" text-anchor="middle" font-size="0.8em">
        <text y="-135">vivable</text>
        <text x="-70" y="-17">viable</text>
        <text x="70" y="-17">équitable</text>
    </g>
    <text class="over-fill" text-anchor="middle" font-weight="900" y="-65">durable</text>
</svg>
