<svg width="100%" viewBox="0 0 800 400"
    aria-labelledby="panorama-digital-title panorama-digital-desc" role="img">
    <title id="panorama-digital-title">Nombre d'appareils composant chaque catégorie de l'univers numérique</title>
    <desc id="panorama-digital-desc">Une treemap représentant la répartition des appareils entre utilisateurs, réseau et centres informatiques</desc>
    <g transform="translate(2,2)">
        <title>Utilisateurs › Internet des objets (19 milliards)</title>
        <rect class="fill fill-1" width="463" height="377"></rect>
        <text class="over-fill">
            <tspan x="3" y="1.1em">IoT</tspan>
            <tspan x="3" y="2.3em" fill-opacity="0.7">19 milliards</tspan>
        </text>
    </g>
    <g transform="translate(466,2)">
        <title>Utilisateurs › Autres téléphones (3,8 milliards)</title>
        <rect class="fill-1" width="172" height="202"></rect>
        <text class="over-fill">
            <tspan x="3" y="1.1em">Autres</tspan>
            <tspan x="3" y="2em">téléphones</tspan>
            <tspan x="3" y="3.2em" fill-opacity="0.7">3,8 milliards</tspan>
        </text>
    </g>
    <g transform="translate(639,2)">
        <title>Utilisateurs › Smartphones (3,5 milliards)</title>
        <rect class="fill-1" width="158" height="202"></rect>
        <text class="over-fill">
            <tspan x="3" y="1.1em">Smartphones</tspan>
            <tspan x="3" y="2.3em" fill-opacity="0.7">3,5 milliards</tspan>
        </text>
    </g>
    <g transform="translate(466,205)">
        <title>Utilisateurs › Ordinateurs (3,2 milliards)</title>
        <rect class="fill-1" width="168" height="174"></rect>
        <text class="over-fill">
            <tspan x="3" y="1.1em">Ordinateurs</tspan>
            <tspan x="3" y="2.3em" fill-opacity="0.7">3,2 milliards</tspan>
        </text>
    </g>
    <g transform="translate(635,205)">
        <title>Utilisateurs › Dispositifs d'affichage (3,1 milliards)</title>
        <rect class="fill-1" width="162" height="174"></rect>
        <text class="over-fill">
            <tspan x="3" y="1.1em">Dispositifs</tspan>
            <tspan x="3" y="2em">d'affichage</tspan>
            <tspan x="3" y="3.2em" fill-opacity="0.7">3,1 milliards</tspan>
        </text>
    </g>
    <g transform="translate(2,381)">
        <title>Réseau › Boîtiers xDSL (1,1 milliards)</title>
        <rect class="fill-3" width="632" height="16"></rect>
        <text class="over-fill" font-size="0.5em">
            <tspan x="3" y="1.1em">Boîtiers xDSL</tspan>
            <tspan x="8.5em" y="1.1em" fill-opacity="0.7">1,1 milliards</tspan>
        </text>
    </g>
    <g transform="translate(635,381)">
        <title>Réseau › WAN/LAN (200 millions)</title>
        <rect class="fill-3" width="115" height="16"></rect>
        <text class="over-fill" font-size="0.5em">
            <tspan x="3" y="1.1em">WAN/LAN</tspan>
            <tspan x="6.5em" y="1.1em" fill-opacity="0.7">300 mil.</tspan>
        </text>
    </g>
    <g transform="translate(751,381)">
        <title>Réseau › Antennes (10 millions)</title>
        <rect class="fill-3" width="6" height="16"></rect>
        <!--<text class="over-fill">
            <tspan x="3" y="1.1em">Antennes</tspan>
            <tspan x="3" y="2.3em" fill-opacity="0.7">10</tspan>
        </text>-->
    </g>
    <g transform="translate(759,381)">
        <title>Centres informatiques › Serveurs (67 millions)</title>
        <rect class="fill-5" width="38" height="16"></rect>
        <!--<text class="over-fill">
            <tspan x="3" y="1.1em">Serveurs</tspan>
            <tspan x="3" y="2.3em" fill-opacity="0.7">67</tspan>
        </text>-->
    </g>
</svg>
